...............
----------------------------------------------------------------------
Ran 15 tests in 0.002s

OK
Name               Stmts   Miss Branch BrPart  Cover   Missing
--------------------------------------------------------------
Diplomacy.py          71      0     46      0   100%
TestDiplomacy.py      79      0      0      0   100%
--------------------------------------------------------------
TOTAL                150      0     46      0   100%
