......
----------------------------------------------------------------------
Ran 6 tests in 0.001s

OK
Name               Stmts   Miss Branch BrPart  Cover   Missing
--------------------------------------------------------------
Diplomacy.py          66      1     42      1    100%
TestDiplomacy.py      41      0      0      0    100%
--------------------------------------------------------------
TOTAL                110      1     42      1    100%